%YAML 1.1
%TAG !u! tag:unity3d.com,2011:
--- !u!114 &-2942218079201614285
MonoBehaviour:
  m_ObjectHideFlags: 0
  m_CorrespondingSourceObject: {fileID: 0}
  m_PrefabInstance: {fileID: 0}
  m_PrefabAsset: {fileID: 0}
  m_GameObject: {fileID: 8298091385544781573}
  m_Enabled: 1
  m_EditorHideFlags: 0
  m_Script: {fileID: 11500000, guid: 4eebae761f3449e78747590520a32ced, type: 3}
  m_Name: 
  m_EditorClassIdentifier: 
  shipRenderer: {fileID: 8951779686924834122}
--- !u!1001 &465678753888760837
PrefabInstance:
  m_ObjectHideFlags: 0
  serializedVersion: 2
  m_Modification:
    m_TransformParent: {fileID: 7806160266457916440}
    m_Modifications:
    - target: {fileID: -8679921383154817045, guid: 07485c6ab9ab350459542604f842b3af, type: 3}
      propertyPath: m_RootOrder
      value: 2
      objectReference: {fileID: 0}
    - target: {fileID: -8679921383154817045, guid: 07485c6ab9ab350459542604f842b3af, type: 3}
      propertyPath: m_LocalScale.x
      value: 11.159704
      objectReference: {fileID: 0}
    - target: {fileID: -8679921383154817045, guid: 07485c6ab9ab350459542604f842b3af, type: 3}
      propertyPath: m_LocalScale.y
      value: 97.866936
      objectReference: {fileID: 0}
    - target: {fileID: -8679921383154817045, guid: 07485c6ab9ab350459542604f842b3af, type: 3}
      propertyPath: m_LocalScale.z
      value: 11.159704
      objectReference: {fileID: 0}
    - target: {fileID: -8679921383154817045, guid: 07485c6ab9ab350459542604f842b3af, type: 3}
      propertyPath: m_LocalPosition.x
      value: -0.00027431574
      objectReference: {fileID: 0}
    - target: {fileID: -8679921383154817045, guid: 07485c6ab9ab350459542604f842b3af, type: 3}
      propertyPath: m_LocalPosition.y
      value: -0.002
      objectReference: {fileID: 0}
    - target: {fileID: -8679921383154817045, guid: 07485c6ab9ab350459542604f842b3af, type: 3}
      propertyPath: m_LocalPosition.z
      value: 0.994
      objectReference: {fileID: 0}
    - target: {fileID: -8679921383154817045, guid: 07485c6ab9ab350459542604f842b3af, type: 3}
      propertyPath: m_LocalRotation.w
      value: 0.70710784
      objectReference: {fileID: 0}
    - target: {fileID: -8679921383154817045, guid: 07485c6ab9ab350459542604f842b3af, type: 3}
      propertyPath: m_LocalRotation.x
      value: 0.70710576
      objectReference: {fileID: 0}
    - target: {fileID: -8679921383154817045, guid: 07485c6ab9ab350459542604f842b3af, type: 3}
      propertyPath: m_LocalRotation.y
      value: -0
      objectReference: {fileID: 0}
    - target: {fileID: -8679921383154817045, guid: 07485c6ab9ab350459542604f842b3af, type: 3}
      propertyPath: m_LocalRotation.z
      value: -0
      objectReference: {fileID: 0}
    - target: {fileID: -8679921383154817045, guid: 07485c6ab9ab350459542604f842b3af, type: 3}
      propertyPath: m_LocalEulerAnglesHint.x
      value: 90
      objectReference: {fileID: 0}
    - target: {fileID: -8679921383154817045, guid: 07485c6ab9ab350459542604f842b3af, type: 3}
      propertyPath: m_LocalEulerAnglesHint.y
      value: 0
      objectReference: {fileID: 0}
    - target: {fileID: -8679921383154817045, guid: 07485c6ab9ab350459542604f842b3af, type: 3}
      propertyPath: m_LocalEulerAnglesHint.z
      value: 0
      objectReference: {fileID: 0}
    - target: {fileID: 919132149155446097, guid: 07485c6ab9ab350459542604f842b3af, type: 3}
      propertyPath: m_Name
      value: Cannon_Type4-1
      objectReference: {fileID: 0}
    m_RemovedComponents: []
  m_SourcePrefab: {fileID: 100100000, guid: 07485c6ab9ab350459542604f842b3af, type: 3}
--- !u!1001 &7581597839212095283
PrefabInstance:
  m_ObjectHideFlags: 0
  serializedVersion: 2
  m_Modification:
    m_TransformParent: {fileID: 0}
    m_Modifications:
    - target: {fileID: 387928007171703595, guid: d3b7df7c353c4ea4886d18a9b526a92f, type: 3}
      propertyPath: m_LocalPosition.y
      value: 0.892
      objectReference: {fileID: 0}
    - target: {fileID: 387928007171703595, guid: d3b7df7c353c4ea4886d18a9b526a92f, type: 3}
      propertyPath: m_LocalPosition.z
      value: 0.201
      objectReference: {fileID: 0}
    - target: {fileID: 1304613471629740907, guid: d3b7df7c353c4ea4886d18a9b526a92f, type: 3}
      propertyPath: m_IsActive
      value: 0
      objectReference: {fileID: 0}
    - target: {fileID: 1882365241165809717, guid: d3b7df7c353c4ea4886d18a9b526a92f, type: 3}
      propertyPath: m_RootOrder
      value: 0
      objectReference: {fileID: 0}
    - target: {fileID: 1882365241165809717, guid: d3b7df7c353c4ea4886d18a9b526a92f, type: 3}
      propertyPath: m_LocalPosition.x
      value: 0
      objectReference: {fileID: 0}
    - target: {fileID: 1882365241165809717, guid: d3b7df7c353c4ea4886d18a9b526a92f, type: 3}
      propertyPath: m_LocalPosition.y
      value: 0
      objectReference: {fileID: 0}
    - target: {fileID: 1882365241165809717, guid: d3b7df7c353c4ea4886d18a9b526a92f, type: 3}
      propertyPath: m_LocalPosition.z
      value: 0
      objectReference: {fileID: 0}
    - target: {fileID: 1882365241165809717, guid: d3b7df7c353c4ea4886d18a9b526a92f, type: 3}
      propertyPath: m_LocalRotation.w
      value: 1
      objectReference: {fileID: 0}
    - target: {fileID: 1882365241165809717, guid: d3b7df7c353c4ea4886d18a9b526a92f, type: 3}
      propertyPath: m_LocalRotation.x
      value: 0
      objectReference: {fileID: 0}
    - target: {fileID: 1882365241165809717, guid: d3b7df7c353c4ea4886d18a9b526a92f, type: 3}
      propertyPath: m_LocalRotation.y
      value: 0
      objectReference: {fileID: 0}
    - target: {fileID: 1882365241165809717, guid: d3b7df7c353c4ea4886d18a9b526a92f, type: 3}
      propertyPath: m_LocalRotation.z
      value: 0
      objectReference: {fileID: 0}
    - target: {fileID: 1882365241165809717, guid: d3b7df7c353c4ea4886d18a9b526a92f, type: 3}
      propertyPath: m_LocalEulerAnglesHint.x
      value: 0
      objectReference: {fileID: 0}
    - target: {fileID: 1882365241165809717, guid: d3b7df7c353c4ea4886d18a9b526a92f, type: 3}
      propertyPath: m_LocalEulerAnglesHint.y
      value: 0
      objectReference: {fileID: 0}
    - target: {fileID: 1882365241165809717, guid: d3b7df7c353c4ea4886d18a9b526a92f, type: 3}
      propertyPath: m_LocalEulerAnglesHint.z
      value: 0
      objectReference: {fileID: 0}
    - target: {fileID: 1882365241165809718, guid: d3b7df7c353c4ea4886d18a9b526a92f, type: 3}
      propertyPath: m_Name
      value: BlueShip_1x4 Variant
      objectReference: {fileID: 0}
    - target: {fileID: 1882365242130588750, guid: d3b7df7c353c4ea4886d18a9b526a92f, type: 3}
      propertyPath: m_IsActive
      value: 0
      objectReference: {fileID: 0}
    - target: {fileID: 7926021886586605910, guid: d3b7df7c353c4ea4886d18a9b526a92f, type: 3}
      propertyPath: m_LocalPosition.z
      value: 2.165
      objectReference: {fileID: 0}
    m_RemovedComponents: []
  m_SourcePrefab: {fileID: 100100000, guid: d3b7df7c353c4ea4886d18a9b526a92f, type: 3}
--- !u!1 &8298091385544781573 stripped
GameObject:
  m_CorrespondingSourceObject: {fileID: 1882365241165809718, guid: d3b7df7c353c4ea4886d18a9b526a92f, type: 3}
  m_PrefabInstance: {fileID: 7581597839212095283}
  m_PrefabAsset: {fileID: 0}
--- !u!4 &8298091385544781574 stripped
Transform:
  m_CorrespondingSourceObject: {fileID: 1882365241165809717, guid: d3b7df7c353c4ea4886d18a9b526a92f, type: 3}
  m_PrefabInstance: {fileID: 7581597839212095283}
  m_PrefabAsset: {fileID: 0}
--- !u!4 &7806160266457916440 stripped
Transform:
  m_CorrespondingSourceObject: {fileID: 387928007171703595, guid: d3b7df7c353c4ea4886d18a9b526a92f, type: 3}
  m_PrefabInstance: {fileID: 7581597839212095283}
  m_PrefabAsset: {fileID: 0}
--- !u!1001 &7780682572972214734
PrefabInstance:
  m_ObjectHideFlags: 0
  serializedVersion: 2
  m_Modification:
    m_TransformParent: {fileID: 8298091385544781574}
    m_Modifications:
    - target: {fileID: -8679921383154817045, guid: 126e714a9884ed94ca277239059fd8a7, type: 3}
      propertyPath: m_RootOrder
      value: 2
      objectReference: {fileID: 0}
    - target: {fileID: -8679921383154817045, guid: 126e714a9884ed94ca277239059fd8a7, type: 3}
      propertyPath: m_LocalScale.x
      value: 20.948082
      objectReference: {fileID: 0}
    - target: {fileID: -8679921383154817045, guid: 126e714a9884ed94ca277239059fd8a7, type: 3}
      propertyPath: m_LocalScale.y
      value: 8.764561
      objectReference: {fileID: 0}
    - target: {fileID: -8679921383154817045, guid: 126e714a9884ed94ca277239059fd8a7, type: 3}
      propertyPath: m_LocalScale.z
      value: 237.99266
      objectReference: {fileID: 0}
    - target: {fileID: -8679921383154817045, guid: 126e714a9884ed94ca277239059fd8a7, type: 3}
      propertyPath: m_LocalPosition.x
      value: -0
      objectReference: {fileID: 0}
    - target: {fileID: -8679921383154817045, guid: 126e714a9884ed94ca277239059fd8a7, type: 3}
      propertyPath: m_LocalPosition.y
      value: 0
      objectReference: {fileID: 0}
    - target: {fileID: -8679921383154817045, guid: 126e714a9884ed94ca277239059fd8a7, type: 3}
      propertyPath: m_LocalPosition.z
      value: 0.21
      objectReference: {fileID: 0}
    - target: {fileID: -8679921383154817045, guid: 126e714a9884ed94ca277239059fd8a7, type: 3}
      propertyPath: m_LocalRotation.w
      value: 1
      objectReference: {fileID: 0}
    - target: {fileID: -8679921383154817045, guid: 126e714a9884ed94ca277239059fd8a7, type: 3}
      propertyPath: m_LocalRotation.x
      value: 0
      objectReference: {fileID: 0}
    - target: {fileID: -8679921383154817045, guid: 126e714a9884ed94ca277239059fd8a7, type: 3}
      propertyPath: m_LocalRotation.y
      value: -0
      objectReference: {fileID: 0}
    - target: {fileID: -8679921383154817045, guid: 126e714a9884ed94ca277239059fd8a7, type: 3}
      propertyPath: m_LocalRotation.z
      value: -0
      objectReference: {fileID: 0}
    - target: {fileID: -8679921383154817045, guid: 126e714a9884ed94ca277239059fd8a7, type: 3}
      propertyPath: m_LocalEulerAnglesHint.x
      value: 0
      objectReference: {fileID: 0}
    - target: {fileID: -8679921383154817045, guid: 126e714a9884ed94ca277239059fd8a7, type: 3}
      propertyPath: m_LocalEulerAnglesHint.y
      value: 0
      objectReference: {fileID: 0}
    - target: {fileID: -8679921383154817045, guid: 126e714a9884ed94ca277239059fd8a7, type: 3}
      propertyPath: m_LocalEulerAnglesHint.z
      value: 0
      objectReference: {fileID: 0}
    - target: {fileID: 919132149155446097, guid: 126e714a9884ed94ca277239059fd8a7, type: 3}
      propertyPath: m_Name
      value: BlueShip_Type4-1
      objectReference: {fileID: 0}
    m_RemovedComponents: []
  m_SourcePrefab: {fileID: 100100000, guid: 126e714a9884ed94ca277239059fd8a7, type: 3}
--- !u!23 &8951779686924834122 stripped
MeshRenderer:
  m_CorrespondingSourceObject: {fileID: -7511558181221131132, guid: 126e714a9884ed94ca277239059fd8a7, type: 3}
  m_PrefabInstance: {fileID: 7780682572972214734}
  m_PrefabAsset: {fileID: 0}
